aiohttp==3.8.1
aiosignal==1.2.0
async-timeout==4.0.2
asynctest==0.13.0
attrs==21.4.0
certifi==2021.10.8
charset-normalizer==2.0.10
conda-pack==0.6.0
docopt==0.6.2
frozenlist==1.2.0
fsspec==2022.1.0
idna==3.3
multidict==5.2.0
numpy==1.21.5
pyarrow==6.0.1
PyYAML==6.0
requests==2.27.1
six==1.16.0
typing_extensions==4.0.1
urllib3==1.26.8
yamlreader==3.0.4
yarl==1.7.2
